^C:\USERS\RUSLA\SOURCE\REPOS\FIRSTCLASSC++\FIRSTCLASSC++.CPP
C:\USERS\RUSLA\SOURCE\REPOS\FIRSTCLASSC++\X64\DEBUG\VC142.PDB
C:\USERS\RUSLA\SOURCE\REPOS\FIRSTCLASSC++\X64\DEBUG\VC142.IDB
C:\USERS\RUSLA\SOURCE\REPOS\FIRSTCLASSC++\X64\DEBUG\FIRSTCLASSC++.OBJ
